http://i.annihil.us/u/prod/marvel/i/mg/c/e0/535fecbbb9784
http://i.annihil.us/u/prod/marvel/i/mg/3/20/5232158de5b16
http://i.annihil.us/u/prod/marvel/i/mg/6/20/52602f21f29ec
http://i.annihil.us/u/prod/marvel/i/mg/9/50/4ce18691cbf04
http://i.annihil.us/u/prod/marvel/i/mg/b/40/image_not_available

<img class="tile" src="http://i.annihil.us/u/prod/marvel/i/mg/c/e0/535fecbbb9784.jpg" alt="">
<img class="tile" src="http://i.annihil.us/u/prod/marvel/i/mg/3/20/5232158de5b16.jpg" alt="">
<img class="tile" src="http://i.annihil.us/u/prod/marvel/i/mg/9/50/4ce18691cbf04.jpg" alt="">
<img class="tile" src="http://i.annihil.us/u/prod/marvel/i/mg/6/20/52602f21f29ec.jpg" alt="">
<img class="tile" src="http://i.annihil.us/u/prod/marvel/i/mg/b/40/image_not_available.jpg" alt="">


