[
    {
        "id": 1009165,
        "name": "Avengers",
        "description": "Earth's Mightiest Heroes joined forces to take on threats that were too big for any one hero to tackle. With a roster that has included Captain America, Iron Man, Ant-Man, Hulk, Thor, Wasp and dozens more over the years, the Avengers have come to be regarded as Earth's No. 1 team.",
        "modified": "2020-04-04T19:00:59-0400",
        "thumbnail": {
            "path": "http://i.annihil.us/u/prod/marvel/i/mg/9/20/5102c774ebae7",
            "extension": "jpg"
        }
    },
    {
        "id": 1017107,
        "name": "Hulk/Bruce Banner (MAA)",
        "description": "Scientist Bruce Banner was transformed into the Hulk as a result to gamma radiation exposure. Over 8 feet tall and weighing 1,040 pounds, it's Hulk's strength that makes him the strongest hero in the Marvel Universe! Hulk smashes all threats that dare disturb the peace and friendship he has found in the Avengers. ",
        "modified": "2013-09-18T15:49:50-0400",
        "thumbnail": {
            "path": "http://i.annihil.us/u/prod/marvel/i/mg/0/03/523219b086a17",
            "extension": "jpg"
        }
    },
    {
        "id": 1009351,
        "name": "Hulk",
        "description": "Caught in a gamma bomb explosion while trying to save the life of a teenager, Dr. Bruce Banner was transformed into the incredibly powerful creature called the Hulk. An all too often misunderstood hero, the angrier the Hulk gets, the stronger the Hulk gets.",
        "modified": "2020-04-04T19:04:20-0400",
        "thumbnail": {
            "path": "http://i.annihil.us/u/prod/marvel/i/mg/5/a0/538615ca33ab0",
            "extension": "jpg"
        }
    },
    {
        "id": 1017098,
        "name": "Hulk (HAS)",
        "description": "The Hulk is the biggest, strongest, smashing-est hero in the Marvel Universe - the green glue that holds his crazy family-like team together. Hulk loves saving the world by smashing every alien, sea creature, and planet (literally) that tries to destroy it. He is the star of his best bud A-Bomb's web series, and just wants to show people his good intentions!",
        "modified": "2013-09-12T14:06:16-0400",
        "thumbnail": {
            "path": "http://i.annihil.us/u/prod/marvel/i/mg/d/10/5232027069e61",
            "extension": "jpg"
        }
    },
    {
        "id": 1009734,
        "name": "Xorn (Kuan-Yin Xorn)",
        "description": "Xorn, whose mutation manifested as a tiny, powerful star inside his head, was brainwashed into believing he was the reincarnation of Magneto.",
        "modified": "1969-12-31T19:00:00-0500",
        "thumbnail": {
            "path": "http://i.annihil.us/u/prod/marvel/i/mg/d/60/4c00394059727",
            "extension": "jpg"
        }
    },
    {
        "id": 1009725,
        "name": "X-Man",
        "description": "A clone of Nathan Summers (Cable), Nate Grey was created in the \"Age of Apocalypse\" timeline by that timeline's Mr. Sinister for the sole purpose of destroying Apocalypse.",
        "modified": "2014-04-29T14:14:20-0400",
        "thumbnail": {
            "path": "http://i.annihil.us/u/prod/marvel/i/mg/d/10/535febd73f84f",
            "extension": "jpg"
        }
    },
    {
        "id": 1009726,
        "name": "X-Men",
        "description": "Feared and hated by humans because they're different, the X-Men are heroic mutants, individuals born with special powers who've sworn to use their gifts to protect mutants as well as humans.",
        "modified": "2017-01-24T15:44:42-0500",
        "thumbnail": {
            "path": "http://i.annihil.us/u/prod/marvel/i/mg/8/03/510c08f345938",
            "extension": "jpg"
        }
    },
    {
        "id": 1009609,
        "name": "Spider-Girl (May Parker)",
        "description": "May \"Mayday\" Parker is the daughter of Spider-Man and Mary Jane Watson-Parker. Born with all her fatherï¿½s powers-and the same silly sense of humor-sheï¿½s grown up to become one of Earthï¿½s most trusted heroes and a fitting tribute to her proud papa.",
        "modified": "2014-03-25T13:30:33-0400",
        "thumbnail": {
            "path": "http://i.annihil.us/u/prod/marvel/i/mg/1/70/4c003adccbe4f",
            "extension": "jpg"
        }
    },
    {
        "id": 1009610,
        "name": "Spider-Man",
        "description": "Bitten by a radioactive spider, high school student Peter Parker gained the speed, strength and powers of a spider. Adopting the name Spider-Man, Peter hoped to start a career using his new abilities. Taught that with great power comes great responsibility, Spidey has vowed to use his powers to help people.",
        "modified": "2020-03-19T14:50:52-0400",
        "thumbnail": {
            "path": "http://i.annihil.us/u/prod/marvel/i/mg/3/50/526548a343e4b",
            "extension": "jpg"
        }
    }
]