{
    "code": 200,
    "status": "Ok",
    "copyright": "© 2020 MARVEL",
    "attributionText": "Data provided by Marvel. © 2020 MARVEL",
    "attributionHTML": "<a href=\"http://marvel.com\">Data provided by Marvel. © 2020 MARVEL</a>",
    "etag": "df15b96b7ac45a5da6fdff0b51fc1fe8846322d2",
    "data": {
        "offset": 0,
        "limit": 100,
        "total": 1493,
        "count": 100,
        "results": [
            {
                "id": 1011334,
                "name": "3-D Man",
                "description": "",
                "modified": "2014-04-29T14:18:17-0400",
                "thumbnail": {
                    "path": "http://i.annihil.us/u/prod/marvel/i/mg/c/e0/535fecbbb9784",
                    "extension": "jpg"
                }
            },
            {
                "id": 1017100,
                "name": "A-Bomb (HAS)",
                "description": "Rick Jones has been Hulk's best bud since day one, but now he's more than a friend...he's a teammate! Transformed by a Gamma energy explosion, A-Bomb's thick, armored skin is just as strong and powerful as it is blue. And when he curls into action, he uses it like a giant bowling ball of destruction! ",
                "modified": "2013-09-18T15:54:04-0400",
                "thumbnail": {
                    "path": "http://i.annihil.us/u/prod/marvel/i/mg/3/20/5232158de5b16",
                    "extension": "jpg"
                }
            },
            {
                "id": 1009144,
                "name": "A.I.M.",
                "description": "AIM is a terrorist organization bent on destroying the world.",
                "modified": "2013-10-17T14:41:30-0400",
                "thumbnail": {
                    "path": "http://i.annihil.us/u/prod/marvel/i/mg/6/20/52602f21f29ec",
                    "extension": "jpg"
                }
            },
            {
                "id": 1010699,
                "name": "Aaron Stack",
                "description": "",
                "modified": "1969-12-31T19:00:00-0500",
                "thumbnail": {
                    "path": "http://i.annihil.us/u/prod/marvel/i/mg/b/40/image_not_available",
                    "extension": "jpg"
                }
            },
            {
                "id": 1009146,
                "name": "Abomination (Emil Blonsky)",
                "description": "Formerly known as Emil Blonsky, a spy of Soviet Yugoslavian origin working for the KGB, the Abomination gained his powers after receiving a dose of gamma radiation similar to that which transformed Bruce Banner into the incredible Hulk.",
                "modified": "2012-03-20T12:32:12-0400",
                "thumbnail": {
                    "path": "http://i.annihil.us/u/prod/marvel/i/mg/9/50/4ce18691cbf04",
                    "extension": "jpg"
                }
            },
            {
                "id": 1016823,
                "name": "Abomination (Ultimate)",
                "description": "",
                "modified": "2012-07-10T19:11:52-0400",
                "thumbnail": {
                    "path": "http://i.annihil.us/u/prod/marvel/i/mg/b/40/image_not_available",
                    "extension": "jpg"
                }
            },
            {
                "id": 1009148,
                "name": "Absorbing Man",
                "description": "",
                "modified": "2013-10-24T14:32:08-0400",
                "thumbnail": {
                    "path": "http://i.annihil.us/u/prod/marvel/i/mg/1/b0/5269678709fb7",
                    "extension": "jpg"
                }
            },
            {
                "id": 1009149,
                "name": "Abyss",
                "description": "",
                "modified": "2014-04-29T14:10:43-0400",
                "thumbnail": {
                    "path": "http://i.annihil.us/u/prod/marvel/i/mg/9/30/535feab462a64",
                    "extension": "jpg"
                }
            },
            {
                "id": 1010903,
                "name": "Abyss (Age of Apocalypse)",
                "description": "",
                "modified": "1969-12-31T19:00:00-0500",
                "thumbnail": {
                    "path": "http://i.annihil.us/u/prod/marvel/i/mg/3/80/4c00358ec7548",
                    "extension": "jpg"
                }
            },
            {
                "id": 1011266,
                "name": "Adam Destine",
                "description": "",
                "modified": "1969-12-31T19:00:00-0500",
                "thumbnail": {
                    "path": "http://i.annihil.us/u/prod/marvel/i/mg/b/40/image_not_available",
                    "extension": "jpg"
                }
            },
            {
                "id": 1010354,
                "name": "Adam Warlock",
                "description": "Adam Warlock is an artificially created human who was born in a cocoon at a scientific complex called The Beehive.",
                "modified": "2013-08-07T13:49:06-0400",
                "thumbnail": {
                    "path": "http://i.annihil.us/u/prod/marvel/i/mg/a/f0/5202887448860",
                    "extension": "jpg"
                }
            },
            {
                "id": 1010846,
                "name": "Aegis (Trey Rollins)",
                "description": "",
                "modified": "1969-12-31T19:00:00-0500",
                "thumbnail": {
                    "path": "http://i.annihil.us/u/prod/marvel/i/mg/5/e0/4c0035c9c425d",
                    "extension": "gif"
                }
            },
            {
                "id": 1011297,
                "name": "Agent Brand",
                "description": "",
                "modified": "2013-10-24T13:09:30-0400",
                "thumbnail": {
                    "path": "http://i.annihil.us/u/prod/marvel/i/mg/4/60/52695285d6e7e",
                    "extension": "jpg"
                }
            },
            {
                "id": 1011031,
                "name": "Agent X (Nijo)",
                "description": "Originally a partner of the mind-altering assassin Black Swan, Nijo spied on Deadpool as part of the Swan's plan to exact revenge for Deadpool falsely taking credit for the Swan's assassination of the Four Winds crime family, which included Nijo's brother.",
                "modified": "1969-12-31T19:00:00-0500",
                "thumbnail": {
                    "path": "http://i.annihil.us/u/prod/marvel/i/mg/b/40/image_not_available",
                    "extension": "jpg"
                }
            },
            {
                "id": 1009150,
                "name": "Agent Zero",
                "description": "",
                "modified": "1969-12-31T19:00:00-0500",
                "thumbnail": {
                    "path": "http://i.annihil.us/u/prod/marvel/i/mg/f/60/4c0042121d790",
                    "extension": "jpg"
                }
            },
            {
                "id": 1011198,
                "name": "Agents of Atlas",
                "description": "",
                "modified": "2016-02-03T10:25:22-0500",
                "thumbnail": {
                    "path": "http://i.annihil.us/u/prod/marvel/i/mg/9/a0/4ce18a834b7f5",
                    "extension": "jpg"
                }
            },
            {
                "id": 1011175,
                "name": "Aginar",
                "description": "",
                "modified": "1969-12-31T19:00:00-0500",
                "thumbnail": {
                    "path": "http://i.annihil.us/u/prod/marvel/i/mg/b/40/image_not_available",
                    "extension": "jpg"
                }
            },
            {
                "id": 1011136,
                "name": "Air-Walker (Gabriel Lan)",
                "description": "",
                "modified": "1969-12-31T19:00:00-0500",
                "thumbnail": {
                    "path": "http://i.annihil.us/u/prod/marvel/i/mg/b/40/image_not_available",
                    "extension": "jpg"
                }
            },
            {
                "id": 1011176,
                "name": "Ajak",
                "description": "",
                "modified": "1969-12-31T19:00:00-0500",
                "thumbnail": {
                    "path": "http://i.annihil.us/u/prod/marvel/i/mg/2/80/4c002f35c5215",
                    "extension": "jpg"
                }
            },
            {
                "id": 1010870,
                "name": "Ajaxis",
                "description": "",
                "modified": "1969-12-31T19:00:00-0500",
                "thumbnail": {
                    "path": "http://i.annihil.us/u/prod/marvel/i/mg/b/70/4c0035adc7d3a",
                    "extension": "jpg"
                }
            },
            {
                "id": 1011194,
                "name": "Akemi",
                "description": "",
                "modified": "1969-12-31T19:00:00-0500",
                "thumbnail": {
                    "path": "http://i.annihil.us/u/prod/marvel/i/mg/b/40/image_not_available",
                    "extension": "jpg"
                }
            },
            {
                "id": 1011170,
                "name": "Alain",
                "description": "",
                "modified": "1969-12-31T19:00:00-0500",
                "thumbnail": {
                    "path": "http://i.annihil.us/u/prod/marvel/i/mg/b/40/image_not_available",
                    "extension": "jpg"
                }
            },
            {
                "id": 1009240,
                "name": "Albert Cleary",
                "description": "",
                "modified": "1969-12-31T19:00:00-0500",
                "thumbnail": {
                    "path": "http://i.annihil.us/u/prod/marvel/i/mg/b/40/image_not_available",
                    "extension": "jpg"
                }
            },
            {
                "id": 1011120,
                "name": "Albion",
                "description": "",
                "modified": "1969-12-31T19:00:00-0500",
                "thumbnail": {
                    "path": "http://i.annihil.us/u/prod/marvel/i/mg/b/40/image_not_available",
                    "extension": "jpg"
                }
            },
            {
                "id": 1010836,
                "name": "Alex Power",
                "description": "",
                "modified": "2011-10-27T09:57:58-0400",
                "thumbnail": {
                    "path": "http://i.annihil.us/u/prod/marvel/i/mg/9/50/4ce5a385a2e82",
                    "extension": "jpg"
                }
            },
            {
                "id": 1010755,
                "name": "Alex Wilder",
                "description": "Despite being the only one of the Runaways without any superhuman abilities or tech, Alex Wilder became the de facto leader of the group due to his natural leadership skills and intellect, as well as prodigy-level logic and strategy.",
                "modified": "1969-12-31T19:00:00-0500",
                "thumbnail": {
                    "path": "http://i.annihil.us/u/prod/marvel/i/mg/2/c0/4c00377144d5a",
                    "extension": "jpg"
                }
            },
            {
                "id": 1011214,
                "name": "Alexa Mendez",
                "description": "",
                "modified": "1969-12-31T19:00:00-0500",
                "thumbnail": {
                    "path": "http://i.annihil.us/u/prod/marvel/i/mg/b/40/image_not_available",
                    "extension": "jpg"
                }
            },
            {
                "id": 1009497,
                "name": "Alexander Pierce",
                "description": "",
                "modified": "1969-12-31T19:00:00-0500",
                "thumbnail": {
                    "path": "http://i.annihil.us/u/prod/marvel/i/mg/b/40/image_not_available",
                    "extension": "jpg"
                }
            },
            {
                "id": 1014990,
                "name": "Alice",
                "description": "",
                "modified": "2010-11-18T16:01:44-0500",
                "thumbnail": {
                    "path": "http://i.annihil.us/u/prod/marvel/i/mg/6/70/4cd061e6d6573",
                    "extension": "jpg"
                }
            },
            {
                "id": 1009435,
                "name": "Alicia Masters",
                "description": "",
                "modified": "1969-12-31T19:00:00-0500",
                "thumbnail": {
                    "path": "http://i.annihil.us/u/prod/marvel/i/mg/b/40/4c003d40ac7ae",
                    "extension": "jpg"
                }
            },
            {
                "id": 1010370,
                "name": "Alpha Flight",
                "description": "",
                "modified": "2013-10-24T13:09:22-0400",
                "thumbnail": {
                    "path": "http://i.annihil.us/u/prod/marvel/i/mg/1/60/52695277ee088",
                    "extension": "jpg"
                }
            },
            {
                "id": 1011324,
                "name": "Alpha Flight (Ultimate)",
                "description": "",
                "modified": "1969-12-31T19:00:00-0500",
                "thumbnail": {
                    "path": "http://i.annihil.us/u/prod/marvel/i/mg/b/40/image_not_available",
                    "extension": "jpg"
                }
            },
            {
                "id": 1011164,
                "name": "Alvin Maker",
                "description": "",
                "modified": "1969-12-31T19:00:00-0500",
                "thumbnail": {
                    "path": "http://i.annihil.us/u/prod/marvel/i/mg/b/40/image_not_available",
                    "extension": "jpg"
                }
            },
            {
                "id": 1011227,
                "name": "Amadeus Cho",
                "description": "",
                "modified": "2013-08-07T13:50:56-0400",
                "thumbnail": {
                    "path": "http://i.annihil.us/u/prod/marvel/i/mg/3/80/520288b9cb581",
                    "extension": "jpg"
                }
            },
            {
                "id": 1009567,
                "name": "Amanda Sefton",
                "description": "",
                "modified": "1969-12-31T19:00:00-0500",
                "thumbnail": {
                    "path": "http://i.annihil.us/u/prod/marvel/i/mg/b/40/image_not_available",
                    "extension": "jpg"
                }
            },
            {
                "id": 1011382,
                "name": "Amazoness",
                "description": "",
                "modified": "1969-12-31T19:00:00-0500",
                "thumbnail": {
                    "path": "http://i.annihil.us/u/prod/marvel/i/mg/b/40/image_not_available",
                    "extension": "jpg"
                }
            },
            {
                "id": 1011361,
                "name": "American Eagle (Jason Strongbow)",
                "description": "",
                "modified": "1969-12-31T19:00:00-0500",
                "thumbnail": {
                    "path": "http://i.annihil.us/u/prod/marvel/i/mg/f/80/4ce5a6d8b8f2a",
                    "extension": "jpg"
                }
            },
            {
                "id": 1009151,
                "name": "Amiko",
                "description": "",
                "modified": "1969-12-31T19:00:00-0500",
                "thumbnail": {
                    "path": "http://i.annihil.us/u/prod/marvel/i/mg/b/40/image_not_available",
                    "extension": "jpg"
                }
            },
            {
                "id": 1010672,
                "name": "Amora",
                "description": "",
                "modified": "1969-12-31T19:00:00-0500",
                "thumbnail": {
                    "path": "http://i.annihil.us/u/prod/marvel/i/mg/b/40/image_not_available",
                    "extension": "jpg"
                }
            },
            {
                "id": 1010673,
                "name": "Amphibian (Earth-712)",
                "description": "",
                "modified": "1969-12-31T19:00:00-0500",
                "thumbnail": {
                    "path": "http://i.annihil.us/u/prod/marvel/i/mg/b/40/image_not_available",
                    "extension": "jpg"
                }
            },
            {
                "id": 1010905,
                "name": "Amun",
                "description": "Amun is a ruthless teenage assassin, employed by the Sisterhood of the Wasp to serve under the mage Vincent after Araña interrupted the ritual to initiate the Wasp's new chosen one.",
                "modified": "1969-12-31T19:00:00-0500",
                "thumbnail": {
                    "path": "http://i.annihil.us/u/prod/marvel/i/mg/b/40/image_not_available",
                    "extension": "jpg"
                }
            },
            {
                "id": 1009152,
                "name": "Ancient One",
                "description": "",
                "modified": "1969-12-31T19:00:00-0500",
                "thumbnail": {
                    "path": "http://i.annihil.us/u/prod/marvel/i/mg/b/b0/4ce59ea2103ac",
                    "extension": "jpg"
                }
            },
            {
                "id": 1016824,
                "name": "Ancient One (Ultimate)",
                "description": "",
                "modified": "2012-07-10T19:15:49-0400",
                "thumbnail": {
                    "path": "http://i.annihil.us/u/prod/marvel/i/mg/b/40/image_not_available",
                    "extension": "jpg"
                }
            },
            {
                "id": 1011396,
                "name": "Angel (Thomas Halloway)",
                "description": "",
                "modified": "2014-03-05T13:14:48-0500",
                "thumbnail": {
                    "path": "http://i.annihil.us/u/prod/marvel/i/mg/d/03/531769834b15f",
                    "extension": "jpg"
                }
            },
            {
                "id": 1011338,
                "name": "Angel (Ultimate)",
                "description": "",
                "modified": "2014-03-05T13:15:49-0500",
                "thumbnail": {
                    "path": "http://i.annihil.us/u/prod/marvel/i/mg/4/50/531769ae4399f",
                    "extension": "jpg"
                }
            },
            {
                "id": 1009153,
                "name": "Angel (Warren Worthington III)",
                "description": "",
                "modified": "2012-05-30T14:06:57-0400",
                "thumbnail": {
                    "path": "http://i.annihil.us/u/prod/marvel/i/mg/b/40/image_not_available",
                    "extension": "jpg"
                }
            },
            {
                "id": 1017574,
                "name": "Angela (Aldrif Odinsdottir)",
                "description": "",
                "modified": "2014-11-17T17:45:37-0500",
                "thumbnail": {
                    "path": "http://i.annihil.us/u/prod/marvel/i/mg/7/00/545a82f59dd73",
                    "extension": "jpg"
                }
            },
            {
                "id": 1010674,
                "name": "Anita Blake",
                "description": "",
                "modified": "2004-04-14T00:00:00-0400",
                "thumbnail": {
                    "path": "http://i.annihil.us/u/prod/marvel/i/mg/2/a0/4c0038fa14452",
                    "extension": "jpg"
                }
            },
            {
                "id": 1009346,
                "name": "Anne Marie Hoag",
                "description": "",
                "modified": "1969-12-31T19:00:00-0500",
                "thumbnail": {
                    "path": "http://i.annihil.us/u/prod/marvel/i/mg/b/40/image_not_available",
                    "extension": "jpg"
                }
            },
            {
                "id": 1009154,
                "name": "Annihilus",
                "description": "",
                "modified": "2013-11-20T17:06:36-0500",
                "thumbnail": {
                    "path": "http://i.annihil.us/u/prod/marvel/i/mg/5/f0/528d31f20a2f6",
                    "extension": "jpg"
                }
            },
            {
                "id": 1011301,
                "name": "Anole",
                "description": "",
                "modified": "1969-12-31T19:00:00-0500",
                "thumbnail": {
                    "path": "http://i.annihil.us/u/prod/marvel/i/mg/9/20/4c002e635ddd9",
                    "extension": "jpg"
                }
            },
            {
                "id": 1010802,
                "name": "Ant-Man (Eric O'Grady)",
                "description": "",
                "modified": "2014-03-05T13:20:04-0500",
                "thumbnail": {
                    "path": "http://i.annihil.us/u/prod/marvel/i/mg/9/c0/53176aa9df48d",
                    "extension": "jpg"
                }
            },
            {
                "id": 1010801,
                "name": "Ant-Man (Scott Lang)",
                "description": "",
                "modified": "2017-01-31T11:03:40-0500",
                "thumbnail": {
                    "path": "http://i.annihil.us/u/prod/marvel/i/mg/e/20/52696868356a0",
                    "extension": "jpg"
                }
            },
            {
                "id": 1011208,
                "name": "Anthem",
                "description": "",
                "modified": "1969-12-31T19:00:00-0500",
                "thumbnail": {
                    "path": "http://i.annihil.us/u/prod/marvel/i/mg/b/40/image_not_available",
                    "extension": "jpg"
                }
            },
            {
                "id": 1009156,
                "name": "Apocalypse",
                "description": "",
                "modified": "2014-05-28T12:41:41-0400",
                "thumbnail": {
                    "path": "http://i.annihil.us/u/prod/marvel/i/mg/f/e0/526166076a1d0",
                    "extension": "jpg"
                }
            },
            {
                "id": 1011253,
                "name": "Apocalypse (Ultimate)",
                "description": "",
                "modified": "1969-12-31T19:00:00-0500",
                "thumbnail": {
                    "path": "http://i.annihil.us/u/prod/marvel/i/mg/b/40/image_not_available",
                    "extension": "jpg"
                }
            },
            {
                "id": 1010866,
                "name": "Aqueduct",
                "description": "",
                "modified": "1969-12-31T19:00:00-0500",
                "thumbnail": {
                    "path": "http://i.annihil.us/u/prod/marvel/i/mg/5/50/4c0035b3630cd",
                    "extension": "jpg"
                }
            },
            {
                "id": 1010773,
                "name": "Arachne",
                "description": "",
                "modified": "2013-10-24T13:07:59-0400",
                "thumbnail": {
                    "path": "http://i.annihil.us/u/prod/marvel/i/mg/b/70/5269526591794",
                    "extension": "jpg"
                }
            },
            {
                "id": 1017438,
                "name": "Araña",
                "description": "",
                "modified": "2013-12-17T15:58:26-0500",
                "thumbnail": {
                    "path": "http://i.annihil.us/u/prod/marvel/i/mg/b/40/image_not_available",
                    "extension": "jpg"
                }
            },
            {
                "id": 1009158,
                "name": "Arcade",
                "description": "",
                "modified": "1969-12-31T19:00:00-0500",
                "thumbnail": {
                    "path": "http://i.annihil.us/u/prod/marvel/i/mg/2/a0/4c0042091ab69",
                    "extension": "jpg"
                }
            },
            {
                "id": 1010686,
                "name": "Arcana",
                "description": "",
                "modified": "1969-12-31T19:00:00-0500",
                "thumbnail": {
                    "path": "http://i.annihil.us/u/prod/marvel/i/mg/b/40/image_not_available",
                    "extension": "jpg"
                }
            },
            {
                "id": 1009159,
                "name": "Archangel",
                "description": "",
                "modified": "2013-10-18T12:48:24-0400",
                "thumbnail": {
                    "path": "http://i.annihil.us/u/prod/marvel/i/mg/8/03/526165ed93180",
                    "extension": "jpg"
                }
            },
            {
                "id": 1009160,
                "name": "Arclight",
                "description": "",
                "modified": "1969-12-31T19:00:00-0500",
                "thumbnail": {
                    "path": "http://i.annihil.us/u/prod/marvel/i/mg/5/f0/4c0042067fd8b",
                    "extension": "jpg"
                }
            },
            {
                "id": 1010784,
                "name": "Ares",
                "description": "",
                "modified": "2014-04-29T14:50:59-0400",
                "thumbnail": {
                    "path": "http://i.annihil.us/u/prod/marvel/i/mg/c/10/535ff3daea603",
                    "extension": "jpg"
                }
            },
            {
                "id": 1011275,
                "name": "Argent",
                "description": "",
                "modified": "1969-12-31T19:00:00-0500",
                "thumbnail": {
                    "path": "http://i.annihil.us/u/prod/marvel/i/mg/b/40/image_not_available",
                    "extension": "jpg"
                }
            },
            {
                "id": 1011012,
                "name": "Armadillo",
                "description": "",
                "modified": "1969-12-31T19:00:00-0500",
                "thumbnail": {
                    "path": "http://i.annihil.us/u/prod/marvel/i/mg/2/40/4c0032754da02",
                    "extension": "jpg"
                }
            },
            {
                "id": 1011298,
                "name": "Armor (Hisako Ichiki)",
                "description": "",
                "modified": "2012-03-07T17:26:33-0500",
                "thumbnail": {
                    "path": "http://i.annihil.us/u/prod/marvel/i/mg/9/20/4c002e6cbf990",
                    "extension": "jpg"
                }
            },
            {
                "id": 1010827,
                "name": "Armory",
                "description": "",
                "modified": "1969-12-31T19:00:00-0500",
                "thumbnail": {
                    "path": "http://i.annihil.us/u/prod/marvel/i/mg/b/40/image_not_available",
                    "extension": "jpg"
                }
            },
            {
                "id": 1009740,
                "name": "Arnim Zola",
                "description": "The frail, dwarfish Arnim Zola was born in 1930s Switzerland where he became the world's leading biochemist and genetic engineer.",
                "modified": "2012-03-20T12:33:28-0400",
                "thumbnail": {
                    "path": "http://i.annihil.us/u/prod/marvel/i/mg/8/b0/4c00393a4cb7c",
                    "extension": "jpg"
                }
            },
            {
                "id": 1010748,
                "name": "Arsenic",
                "description": "",
                "modified": "1969-12-31T19:00:00-0500",
                "thumbnail": {
                    "path": "http://i.annihil.us/u/prod/marvel/i/mg/8/c0/4c00359a2be7b",
                    "extension": "jpg"
                }
            },
            {
                "id": 1009161,
                "name": "Artiee",
                "description": "",
                "modified": "2011-10-27T09:59:16-0400",
                "thumbnail": {
                    "path": "http://i.annihil.us/u/prod/marvel/i/mg/b/40/image_not_available",
                    "extension": "jpg"
                }
            },
            {
                "id": 1010718,
                "name": "Asgardian",
                "description": "",
                "modified": "1969-12-31T19:00:00-0500",
                "thumbnail": {
                    "path": "http://i.annihil.us/u/prod/marvel/i/mg/b/40/image_not_available",
                    "extension": "jpg"
                }
            },
            {
                "id": 1009162,
                "name": "Askew-Tronics",
                "description": "",
                "modified": "1969-12-31T19:00:00-0500",
                "thumbnail": {
                    "path": "http://i.annihil.us/u/prod/marvel/i/mg/b/40/image_not_available",
                    "extension": "jpg"
                }
            },
            {
                "id": 1010835,
                "name": "Asylum",
                "description": "",
                "modified": "1969-12-31T19:00:00-0500",
                "thumbnail": {
                    "path": "http://i.annihil.us/u/prod/marvel/i/mg/b/40/image_not_available",
                    "extension": "jpg"
                }
            },
            {
                "id": 1010336,
                "name": "Atlas (Team)",
                "description": "",
                "modified": "1969-12-31T19:00:00-0500",
                "thumbnail": {
                    "path": "http://i.annihil.us/u/prod/marvel/i/mg/b/40/image_not_available",
                    "extension": "jpg"
                }
            },
            {
                "id": 1009163,
                "name": "Aurora",
                "description": "",
                "modified": "2011-05-10T15:56:51-0400",
                "thumbnail": {
                    "path": "http://i.annihil.us/u/prod/marvel/i/mg/f/10/4c004203f1072",
                    "extension": "jpg"
                }
            },
            {
                "id": 1009164,
                "name": "Avalanche",
                "description": "",
                "modified": "2010-11-05T14:30:34-0400",
                "thumbnail": {
                    "path": "http://i.annihil.us/u/prod/marvel/i/mg/f/10/4c0042010d383",
                    "extension": "jpg"
                }
            },
            {
                "id": 1009165,
                "name": "Avengers",
                "description": "Earth's Mightiest Heroes joined forces to take on threats that were too big for any one hero to tackle. With a roster that has included Captain America, Iron Man, Ant-Man, Hulk, Thor, Wasp and dozens more over the years, the Avengers have come to be regarded as Earth's No. 1 team.",
                "modified": "2020-04-04T19:00:59-0400",
                "thumbnail": {
                    "path": "http://i.annihil.us/u/prod/marvel/i/mg/9/20/5102c774ebae7",
                    "extension": "jpg"
                }
            },
            {
                "id": 1015239,
                "name": "Avengers (Ultimate)",
                "description": "",
                "modified": "2012-07-10T19:18:28-0400",
                "thumbnail": {
                    "path": "http://i.annihil.us/u/prod/marvel/i/mg/b/40/image_not_available",
                    "extension": "jpg"
                }
            },
            {
                "id": 1011766,
                "name": "Azazel (Mutant)",
                "description": "A mutant from biblical times, Azazel is the ruler of the Neyaphem and claims that the Earth and everything on it belongs to him.",
                "modified": "2011-06-09T11:04:52-0400",
                "thumbnail": {
                    "path": "http://i.annihil.us/u/prod/marvel/i/mg/b/40/image_not_available",
                    "extension": "jpg"
                }
            },
            {
                "id": 1009168,
                "name": "Banshee",
                "description": "",
                "modified": "2013-11-01T16:27:08-0400",
                "thumbnail": {
                    "path": "http://i.annihil.us/u/prod/marvel/i/mg/b/03/52740e4619f54",
                    "extension": "jpg"
                }
            },
            {
                "id": 1009596,
                "name": "Banshee (Theresa Rourke)",
                "description": "The daughter of former X-Men member Sean Cassidy, a.k.a. Banshee, and Maeve Rourke, Theresa Rourke was raised by her first cousin once removed, mutant terrorist Thomas Cassidy, a.k.a. Black Tom.",
                "modified": "2011-03-23T17:37:27-0400",
                "thumbnail": {
                    "path": "http://i.annihil.us/u/prod/marvel/i/mg/b/c0/4ce5a1a50e56b",
                    "extension": "jpg"
                }
            },
            {
                "id": 1009169,
                "name": "Baron Strucker",
                "description": "",
                "modified": "2012-03-20T12:30:55-0400",
                "thumbnail": {
                    "path": "http://i.annihil.us/u/prod/marvel/i/mg/8/80/4c0041fb5a90d",
                    "extension": "jpg"
                }
            },
            {
                "id": 1009170,
                "name": "Baron Zemo (Heinrich Zemo)",
                "description": "",
                "modified": "2017-08-24T12:46:19-0400",
                "thumbnail": {
                    "path": "http://i.annihil.us/u/prod/marvel/i/mg/9/60/4c0041f84c9fe",
                    "extension": "jpg"
                }
            },
            {
                "id": 1010906,
                "name": "Baron Zemo (Helmut Zemo)",
                "description": "",
                "modified": "2011-02-24T13:21:20-0500",
                "thumbnail": {
                    "path": "http://i.annihil.us/u/prod/marvel/i/mg/5/a0/4c0035890fb0a",
                    "extension": "jpg"
                }
            },
            {
                "id": 1011137,
                "name": "Baroness S'Bak",
                "description": "",
                "modified": "1969-12-31T19:00:00-0500",
                "thumbnail": {
                    "path": "http://i.annihil.us/u/prod/marvel/i/mg/b/40/image_not_available",
                    "extension": "jpg"
                }
            },
            {
                "id": 1011354,
                "name": "Barracuda",
                "description": "",
                "modified": "1969-12-31T19:00:00-0500",
                "thumbnail": {
                    "path": "http://i.annihil.us/u/prod/marvel/i/mg/b/40/image_not_available",
                    "extension": "jpg"
                }
            },
            {
                "id": 1009550,
                "name": "Bart Rozum",
                "description": "",
                "modified": "1969-12-31T19:00:00-0500",
                "thumbnail": {
                    "path": "http://i.annihil.us/u/prod/marvel/i/mg/b/40/image_not_available",
                    "extension": "jpg"
                }
            },
            {
                "id": 1009171,
                "name": "Bastion",
                "description": "",
                "modified": "2013-10-24T13:07:45-0400",
                "thumbnail": {
                    "path": "http://i.annihil.us/u/prod/marvel/i/mg/d/80/52695253215f4",
                    "extension": "jpg"
                }
            },
            {
                "id": 1009172,
                "name": "Batroc the Leaper",
                "description": "",
                "modified": "2011-03-03T11:45:12-0500",
                "thumbnail": {
                    "path": "http://i.annihil.us/u/prod/marvel/i/mg/c/80/4ce59eb840da5",
                    "extension": "gif"
                }
            },
            {
                "id": 1009173,
                "name": "Battering Ram",
                "description": "",
                "modified": "1969-12-31T19:00:00-0500",
                "thumbnail": {
                    "path": "http://i.annihil.us/u/prod/marvel/i/mg/f/60/4c002e0305708",
                    "extension": "gif"
                }
            },
            {
                "id": 1009174,
                "name": "Beak",
                "description": "",
                "modified": "1969-12-31T19:00:00-0500",
                "thumbnail": {
                    "path": "http://i.annihil.us/u/prod/marvel/i/mg/5/90/4c0040b8329ad",
                    "extension": "jpg"
                }
            },
            {
                "id": 1009175,
                "name": "Beast",
                "description": "",
                "modified": "2014-01-13T14:48:32-0500",
                "thumbnail": {
                    "path": "http://i.annihil.us/u/prod/marvel/i/mg/2/80/511a79a0451a3",
                    "extension": "jpg"
                }
            },
            {
                "id": 1010909,
                "name": "Beast (Earth-311)",
                "description": "",
                "modified": "1969-12-31T19:00:00-0500",
                "thumbnail": {
                    "path": "http://i.annihil.us/u/prod/marvel/i/mg/5/a0/4c0035813dc4c",
                    "extension": "jpg"
                }
            },
            {
                "id": 1010908,
                "name": "Beast (Ultimate)",
                "description": "",
                "modified": "2014-03-05T13:19:55-0500",
                "thumbnail": {
                    "path": "http://i.annihil.us/u/prod/marvel/i/mg/5/d0/53176a9be110c",
                    "extension": "jpg"
                }
            },
            {
                "id": 1009176,
                "name": "Becatron",
                "description": "",
                "modified": "1969-12-31T19:00:00-0500",
                "thumbnail": {
                    "path": "http://i.annihil.us/u/prod/marvel/i/mg/b/40/image_not_available",
                    "extension": "jpg"
                }
            },
            {
                "id": 1009177,
                "name": "Bedlam",
                "description": "",
                "modified": "1969-12-31T19:00:00-0500",
                "thumbnail": {
                    "path": "http://i.annihil.us/u/prod/marvel/i/mg/b/40/image_not_available",
                    "extension": "jpg"
                }
            },
            {
                "id": 1009178,
                "name": "Beef",
                "description": "",
                "modified": "1969-12-31T19:00:00-0500",
                "thumbnail": {
                    "path": "http://i.annihil.us/u/prod/marvel/i/mg/f/60/4c002e0305708",
                    "extension": "gif"
                }
            },
            {
                "id": 1009179,
                "name": "Beetle (Abner Jenkins)",
                "description": "",
                "modified": "1969-12-31T19:00:00-0500",
                "thumbnail": {
                    "path": "http://i.annihil.us/u/prod/marvel/i/mg/b/40/image_not_available",
                    "extension": "jpg"
                }
            },
            {
                "id": 1009329,
                "name": "Ben Grimm",
                "description": "",
                "modified": "2011-03-18T12:27:31-0400",
                "thumbnail": {
                    "path": "http://i.annihil.us/u/prod/marvel/i/mg/b/40/image_not_available",
                    "extension": "jpg"
                }
            }
        ]
    }
}