{
    "code": 200,
    "status": "Ok",
    "copyright": "© 2020 MARVEL",
    "attributionText": "Data provided by Marvel. © 2020 MARVEL",
    "attributionHTML": "<a href=\"http://marvel.com\">Data provided by Marvel. © 2020 MARVEL</a>",
    "etag": "e2cccb4e953fa9dbec05b27ae47ca2df321376eb",
    "data": {
        "offset": 0,
        "limit": 100,
        "total": 32,
        "count": 32,
        "results": [
            {
                "id": 1009525,
                "name": "Valeria Richards",
                "description": "",
                "modified": "2011-10-27T09:58:06-0400",
                "thumbnail": {
                    "path": "http://i.annihil.us/u/prod/marvel/i/mg/3/60/4d541255f088a",
                    "extension": "jpg"
                }
            },
            {
                "id": 1010350,
                "name": "Valkyrie (Samantha Parrington)",
                "description": "Amora magically transformed Samantha Parrington into a raging, man-hating facsimile of the Asgardian warrior goddess Brunnhilde the Valkyrie, whose form and might Amora could replicate at will, having trapped Brunnhilde's soul in a mystical crystal centuries earlier.",
                "modified": "2014-04-29T14:23:28-0400",
                "thumbnail": {
                    "path": "http://i.annihil.us/u/prod/marvel/i/mg/c/00/535fed8a3a00f",
                    "extension": "jpg"
                }
            },
            {
                "id": 1011239,
                "name": "Valkyrie (Ultimate)",
                "description": "",
                "modified": "2014-03-05T13:58:33-0500",
                "thumbnail": {
                    "path": "http://i.annihil.us/u/prod/marvel/i/mg/4/20/53177396dc74f",
                    "extension": "jpg"
                }
            },
            {
                "id": 1011182,
                "name": "Vampiro",
                "description": "Vampiro, part of the race known as the Eternals, lived on Earth for many years, eventually taking a wife and making a career for himself as a professional wrestler.",
                "modified": "1969-12-31T19:00:00-0500",
                "thumbnail": {
                    "path": "http://i.annihil.us/u/prod/marvel/i/mg/8/b0/4c002f27b9a1e",
                    "extension": "jpg"
                }
            },
            {
                "id": 1011342,
                "name": "Vance Astro",
                "description": "",
                "modified": "1969-12-31T19:00:00-0500",
                "thumbnail": {
                    "path": "http://i.annihil.us/u/prod/marvel/i/mg/b/40/image_not_available",
                    "extension": "jpg"
                }
            },
            {
                "id": 1010989,
                "name": "Vanisher (Age of Apocalypse)",
                "description": "Vanisher worked for Apocalypse.",
                "modified": "2013-10-18T16:35:15-0400",
                "thumbnail": {
                    "path": "http://i.annihil.us/u/prod/marvel/i/mg/b/40/image_not_available",
                    "extension": "jpg"
                }
            },
            {
                "id": 1011365,
                "name": "Vanisher (Telford Porter)",
                "description": "Nothing is known about the Vanisher's past before he embarked on a one-man crime wave of spectacular thefts using his power of self-teleportation.",
                "modified": "1969-12-31T19:00:00-0500",
                "thumbnail": {
                    "path": "http://i.annihil.us/u/prod/marvel/i/mg/b/40/image_not_available",
                    "extension": "jpg"
                }
            },
            {
                "id": 1009689,
                "name": "Vanisher (Ultimate)",
                "description": "Vanisher is a mutant with the power to teleport himself and possibly others across an undefined amount of distance who was recruited by Magneto into his Brotherhood of Mutants.",
                "modified": "1969-12-31T19:00:00-0500",
                "thumbnail": {
                    "path": "http://i.annihil.us/u/prod/marvel/i/mg/b/40/image_not_available",
                    "extension": "jpg"
                }
            },
            {
                "id": 1011316,
                "name": "Vapor",
                "description": "Vapor, along with her brother, was among the small group led by Simon Utrecht to simulate the crash that gave the Fantastic Four their powers, and has remained with the U-Foes ever since.",
                "modified": "1969-12-31T19:00:00-0500",
                "thumbnail": {
                    "path": "http://i.annihil.us/u/prod/marvel/i/mg/3/40/4c002e541867f",
                    "extension": "jpg"
                }
            },
            {
                "id": 1009690,
                "name": "Vargas",
                "description": "Vargas claimed that mutants are deviations from the norm, an evolutionary dead end nature explored until it found the true path for the next step in mutant kinds development, the legitimate Homo Sapiens Superior, namely, himself.",
                "modified": "1969-12-31T19:00:00-0500",
                "thumbnail": {
                    "path": "http://i.annihil.us/u/prod/marvel/i/mg/8/80/4c003a81cef50",
                    "extension": "jpg"
                }
            },
            {
                "id": 1010872,
                "name": "Vector",
                "description": "Simon Utrecht wanted superhuman powers in order to persue personal power and gain, and commissioned a project that would ultimately simulate the crash that gave the Fantastic Four their powers; he has remained with the U-Foes ever since.",
                "modified": "1969-12-31T19:00:00-0500",
                "thumbnail": {
                    "path": "http://i.annihil.us/u/prod/marvel/i/mg/8/80/4c0035a7dd04d",
                    "extension": "jpg"
                }
            },
            {
                "id": 1011231,
                "name": "Veda",
                "description": "Magdalena Marie Neuntauben became an accomplished martial artist, then a model, and later an actress, from which she donated all of her proceeds to her charity, which made her a prime candidate for recruitment into the Order.",
                "modified": "1969-12-31T19:00:00-0500",
                "thumbnail": {
                    "path": "http://i.annihil.us/u/prod/marvel/i/mg/b/40/image_not_available",
                    "extension": "jpg"
                }
            },
            {
                "id": 1009691,
                "name": "Vengeance (Michael Badilino)",
                "description": "Michael Badilino became consumed with gaining vengeance on Ghost Rider for what happened to his family, and the demon Mephisto granted him the power with which to do so, transforming him into Vengeance.",
                "modified": "2014-04-29T14:10:10-0400",
                "thumbnail": {
                    "path": "http://i.annihil.us/u/prod/marvel/i/mg/3/e0/528d3655b9f06",
                    "extension": "jpg"
                }
            },
            {
                "id": 1009663,
                "name": "Venom (Flash Thompson)",
                "description": "Flash Thompson was the high school bully of Peter Parker while also being one of Spider-Man's biggest fans. After losing his legs during military service, he became the new Venom, working as an operative of the United States government.",
                "modified": "2016-05-25T12:51:24-0400",
                "thumbnail": {
                    "path": "http://i.annihil.us/u/prod/marvel/i/mg/7/80/5269668c7d5df",
                    "extension": "jpg"
                }
            },
            {
                "id": 1010788,
                "name": "Venom (Mac Gargan)",
                "description": "One of Spider-Man's oldest enemies, Mac Gargan has recently abandoned his Scorpion suit and identity and bonded with the alien symbiote that had previously been hosted by Peter Parker and Eddie Brock, becoming the new Venom.",
                "modified": "2014-03-05T13:58:37-0500",
                "thumbnail": {
                    "path": "http://i.annihil.us/u/prod/marvel/i/mg/5/50/531773a2ac20a",
                    "extension": "jpg"
                }
            },
            {
                "id": 1011128,
                "name": "Venom (Ultimate)",
                "description": "While Eddie Brock’s academic career seemed to take off, his personal life was in shambles due to his quick temper and inability to connect with women on any level, and Eddie became isolated, but when his old friend Peter Parker contacted him, he felt a rush of enthusiasm: here, at last, was someone with whom he could truly bond.",
                "modified": "2014-03-05T13:58:42-0500",
                "thumbnail": {
                    "path": "http://i.annihil.us/u/prod/marvel/i/mg/e/10/531773a976816",
                    "extension": "jpg"
                }
            },
            {
                "id": 1011106,
                "name": "Venus (Siren)",
                "description": "During her time as an adventurer, Venus was approached by FBI agent Jimmy Woo, and she agreed to join Jimmy and his allies in freeing President Eisenhower from the clutches of the Yellow Claw.",
                "modified": "2014-04-29T14:52:01-0400",
                "thumbnail": {
                    "path": "http://i.annihil.us/u/prod/marvel/i/mg/f/f0/535ff36a8fbef",
                    "extension": "jpg"
                }
            },
            {
                "id": 1009693,
                "name": "Venus Dee Milo",
                "description": "When Dee Milo was a teenager, her mutant powers manifested, transforming her into a being of energy and seemingly killing her entire family in the resultant explosion, after which she was found by Professor Charles Xavier, mutant mentor and researcher, and Xavier designed a special containment suit that helped her regain some level of humanity.",
                "modified": "1969-12-31T19:00:00-0500",
                "thumbnail": {
                    "path": "http://i.annihil.us/u/prod/marvel/i/mg/b/40/image_not_available",
                    "extension": "jpg"
                }
            },
            {
                "id": 1010353,
                "name": "Vermin (Edward Whelan)",
                "description": "Edward Whelan was found roaming the streets of New York by Baron Helmut Zemo, who subjected Whelan to Zemo's genetic experiments, which granted him superhuman strength, but, in the process of the mutation, he manifested a rat-like physical appearance, and was called Vermin.",
                "modified": "2013-11-20T17:27:14-0500",
                "thumbnail": {
                    "path": "http://i.annihil.us/u/prod/marvel/i/mg/3/b0/528d3638185cb",
                    "extension": "jpg"
                }
            },
            {
                "id": 1009694,
                "name": "Vertigo (Savage Land Mutate)",
                "description": "Vertigo was a native of the Savage Land and mutated by the mutant known as Magneto, granting her the power to alter the perceptions of others.",
                "modified": "1969-12-31T19:00:00-0500",
                "thumbnail": {
                    "path": "http://i.annihil.us/u/prod/marvel/i/mg/b/40/image_not_available",
                    "extension": "jpg"
                }
            },
            {
                "id": 1011066,
                "name": "Victor Mancha",
                "description": "",
                "modified": "1969-12-31T19:00:00-0500",
                "thumbnail": {
                    "path": "http://i.annihil.us/u/prod/marvel/i/mg/b/10/4c0030f13bcaf",
                    "extension": "jpg"
                }
            },
            {
                "id": 1010324,
                "name": "Victor Von Doom",
                "description": "",
                "modified": "1969-12-31T19:00:00-0500",
                "thumbnail": {
                    "path": "http://i.annihil.us/u/prod/marvel/i/mg/b/40/image_not_available",
                    "extension": "jpg"
                }
            },
            {
                "id": 1011261,
                "name": "Vin Gonzales",
                "description": "",
                "modified": "1969-12-31T19:00:00-0500",
                "thumbnail": {
                    "path": "http://i.annihil.us/u/prod/marvel/i/mg/b/40/image_not_available",
                    "extension": "jpg"
                }
            },
            {
                "id": 1009695,
                "name": "Vindicator",
                "description": "Heather McNeil-Hudson married James Hudson, founder of Canadian super-team, Alpha Flight, and donned a version of his Vindicator armor after his death.",
                "modified": "2011-06-17T13:31:18-0400",
                "thumbnail": {
                    "path": "http://i.annihil.us/u/prod/marvel/i/mg/3/b0/4c003a7f39967",
                    "extension": "jpg"
                }
            },
            {
                "id": 1010666,
                "name": "Violations",
                "description": "",
                "modified": "1969-12-31T19:00:00-0500",
                "thumbnail": {
                    "path": "http://i.annihil.us/u/prod/marvel/i/mg/b/40/image_not_available",
                    "extension": "jpg"
                }
            },
            {
                "id": 1009696,
                "name": "Viper",
                "description": "After the apparent death of Baron von Strucker, Viper took the name Madame Hydra and took control of the New York-based faction of Hydra.",
                "modified": "2010-12-17T13:24:45-0500",
                "thumbnail": {
                    "path": "http://i.annihil.us/u/prod/marvel/i/mg/b/40/image_not_available",
                    "extension": "jpg"
                }
            },
            {
                "id": 1010697,
                "name": "Virginia Dare",
                "description": "",
                "modified": "1969-12-31T19:00:00-0500",
                "thumbnail": {
                    "path": "http://i.annihil.us/u/prod/marvel/i/mg/b/40/image_not_available",
                    "extension": "jpg"
                }
            },
            {
                "id": 1009697,
                "name": "Vision",
                "description": "The metal monstrosity called Ultron created the synthetic humanoid known as the Vision from the remains of the original android Human Torch of the 1940s to serve as a vehicle of vengeance against the Avengers.",
                "modified": "2016-05-02T15:51:46-0400",
                "thumbnail": {
                    "path": "http://i.annihil.us/u/prod/marvel/i/mg/9/d0/5111527040594",
                    "extension": "jpg"
                }
            },
            {
                "id": 1009698,
                "name": "Vivisector",
                "description": "",
                "modified": "1969-12-31T19:00:00-0500",
                "thumbnail": {
                    "path": "http://i.annihil.us/u/prod/marvel/i/mg/b/40/image_not_available",
                    "extension": "jpg"
                }
            },
            {
                "id": 1011011,
                "name": "Vulcan (Gabriel Summers)",
                "description": "Vulcan is the third Summers brother and an Omega-level mutant who was thought long-dead by Professor X.",
                "modified": "2013-11-20T17:27:10-0500",
                "thumbnail": {
                    "path": "http://i.annihil.us/u/prod/marvel/i/mg/3/80/528d3629c2a91",
                    "extension": "jpg"
                }
            },
            {
                "id": 1009699,
                "name": "Vulture (Adrian Toomes)",
                "description": "Adrian Toomes is a former electronics engineer who employs a special harness of his own design that allows him to fly and endows him with enhanced strength.",
                "modified": "1969-12-31T19:00:00-0500",
                "thumbnail": {
                    "path": "http://i.annihil.us/u/prod/marvel/i/mg/3/50/4c003a7929d28",
                    "extension": "jpg"
                }
            },
            {
                "id": 1010990,
                "name": "Vulture (Blackie Drago)",
                "description": "Adrian Toomes, the Vulture, told his cellmate, Blackie Drago, the location of his Vulture costume.",
                "modified": "1969-12-31T19:00:00-0500",
                "thumbnail": {
                    "path": "http://i.annihil.us/u/prod/marvel/i/mg/5/50/4c00329c0dc23",
                    "extension": "jpg"
                }
            }
        ]
    }
}