{
    "code": 200,
    "status": "Ok",
    "copyright": "© 2020 MARVEL",
    "attributionText": "Data provided by Marvel. © 2020 MARVEL",
    "attributionHTML": "<a href=\"http://marvel.com\">Data provided by Marvel. © 2020 MARVEL</a>",
    "etag": "7bf12275964cd34cca7b19706b21921897c755ec",
    "data": {
        "offset": 0,
        "limit": 100,
        "total": 37,
        "count": 37,
        "results": [
            {
                "id": 1009248,
                "name": "Fabian Cortez",
                "description": "",
                "modified": "1969-12-31T19:00:00-0500",
                "thumbnail": {
                    "path": "http://i.annihil.us/u/prod/marvel/i/mg/4/f0/4c0040603dda1",
                    "extension": "jpg"
                }
            },
            {
                "id": 1009297,
                "name": "Falcon",
                "description": "With a mental connection to all birds and a suit that gives him wings to fly, The Falcon has been both the partner to Captain America and an Avenger himself. Whether as a super hero or in his secret identity of social worker Sam Wilson, The Falcon dedicates his life to standing up for others.",
                "modified": "2016-06-02T12:31:51-0400",
                "thumbnail": {
                    "path": "http://i.annihil.us/u/prod/marvel/i/mg/f/b0/5111505fb7009",
                    "extension": "jpg"
                }
            },
            {
                "id": 1017110,
                "name": "Falcon/Sam Wilson (MAA)",
                "description": "Recruited from S.H.I.E.L.D. by his hero and mentor Tony Stark, Falcon is the Avengers' newest and youngest recruit. Like Tony, Sam is a genius with machines and technology. What he lacks in experience, Sam makes up in enthusiasm and determination. Falcon's suit of armor comes fully stocked with holographic wings, explosive flechettes, and retractable talons.",
                "modified": "2013-09-18T15:52:17-0400",
                "thumbnail": {
                    "path": "http://i.annihil.us/u/prod/marvel/i/mg/3/10/523219c347dd1",
                    "extension": "jpg"
                }
            },
            {
                "id": 1011143,
                "name": "Fallen One",
                "description": "",
                "modified": "1969-12-31T19:00:00-0500",
                "thumbnail": {
                    "path": "http://i.annihil.us/u/prod/marvel/i/mg/b/40/image_not_available",
                    "extension": "jpg"
                }
            },
            {
                "id": 1009298,
                "name": "Famine",
                "description": "",
                "modified": "1969-12-31T19:00:00-0500",
                "thumbnail": {
                    "path": "http://i.annihil.us/u/prod/marvel/i/mg/b/40/image_not_available",
                    "extension": "jpg"
                }
            },
            {
                "id": 1009299,
                "name": "Fantastic Four",
                "description": "After being exposed to cosmic rays, Reed Richards, Susan Storm, Ben Grimm and Johnny Storm found they had amazing new powers. Reed Richards found he has the ability to stretch his body in any way he wanted, while Susan Storm can turn herself, objects and other people invisible. Ben Grimm transformed into a rocky, super-strong behemoth and Johnny Storm has the ability to set himself on fire. Dubbed the Fantastic Four, Mr. Fantastic, Invisible Woman, Thing and the Human Torch are Marvel's First Family.",
                "modified": "2016-05-05T14:38:42-0400",
                "thumbnail": {
                    "path": "http://i.annihil.us/u/prod/marvel/i/mg/9/60/50febc4f55525",
                    "extension": "jpg"
                }
            },
            {
                "id": 1011013,
                "name": "Fantastic Four (Ultimate)",
                "description": "",
                "modified": "1969-12-31T19:00:00-0500",
                "thumbnail": {
                    "path": "http://i.annihil.us/u/prod/marvel/i/mg/f/b0/4c0032727c038",
                    "extension": "jpg"
                }
            },
            {
                "id": 1011111,
                "name": "Fantastick Four",
                "description": "",
                "modified": "1969-12-31T19:00:00-0500",
                "thumbnail": {
                    "path": "http://i.annihil.us/u/prod/marvel/i/mg/4/80/4c0030a052a1c",
                    "extension": "jpg"
                }
            },
            {
                "id": 1009301,
                "name": "Fantomex",
                "description": "",
                "modified": "2014-04-29T14:52:10-0400",
                "thumbnail": {
                    "path": "http://i.annihil.us/u/prod/marvel/i/mg/f/60/535ff35da5ccd",
                    "extension": "jpg"
                }
            },
            {
                "id": 1011233,
                "name": "Fat Cobra",
                "description": "",
                "modified": "2011-05-26T17:52:52-0400",
                "thumbnail": {
                    "path": "http://i.annihil.us/u/prod/marvel/i/mg/e/f0/4db58b3c6aaa6",
                    "extension": "jpg"
                }
            },
            {
                "id": 1009335,
                "name": "Felicia Hardy",
                "description": "",
                "modified": "1969-12-31T19:00:00-0500",
                "thumbnail": {
                    "path": "http://i.annihil.us/u/prod/marvel/i/mg/b/40/image_not_available",
                    "extension": "jpg"
                }
            },
            {
                "id": 1009302,
                "name": "Fenris",
                "description": "",
                "modified": "1969-12-31T19:00:00-0500",
                "thumbnail": {
                    "path": "http://i.annihil.us/u/prod/marvel/i/mg/b/40/image_not_available",
                    "extension": "jpg"
                }
            },
            {
                "id": 1011213,
                "name": "Feral",
                "description": "",
                "modified": "1969-12-31T19:00:00-0500",
                "thumbnail": {
                    "path": "http://i.annihil.us/u/prod/marvel/i/mg/b/40/image_not_available",
                    "extension": "jpg"
                }
            },
            {
                "id": 1009303,
                "name": "Fin Fang Foom",
                "description": "",
                "modified": "2011-05-24T16:44:22-0400",
                "thumbnail": {
                    "path": "http://i.annihil.us/u/prod/marvel/i/mg/a/60/4ce59fc647d58",
                    "extension": "jpg"
                }
            },
            {
                "id": 1010868,
                "name": "Firebird",
                "description": "",
                "modified": "1969-12-31T19:00:00-0500",
                "thumbnail": {
                    "path": "http://i.annihil.us/u/prod/marvel/i/mg/8/30/4c0035b0a7de0",
                    "extension": "jpg"
                }
            },
            {
                "id": 1009304,
                "name": "Firebrand",
                "description": "",
                "modified": "1969-12-31T19:00:00-0500",
                "thumbnail": {
                    "path": "http://i.annihil.us/u/prod/marvel/i/mg/b/40/image_not_available",
                    "extension": "jpg"
                }
            },
            {
                "id": 1014987,
                "name": "Firedrake",
                "description": "",
                "modified": "2010-11-18T15:58:52-0500",
                "thumbnail": {
                    "path": "http://i.annihil.us/u/prod/marvel/i/mg/8/a0/4cd0603234ecd",
                    "extension": "jpg"
                }
            },
            {
                "id": 1009305,
                "name": "Firelord",
                "description": "",
                "modified": "2010-11-18T14:27:51-0500",
                "thumbnail": {
                    "path": "http://i.annihil.us/u/prod/marvel/i/mg/9/b0/4ce59fd314c38",
                    "extension": "jpg"
                }
            },
            {
                "id": 1009306,
                "name": "Firestar",
                "description": "",
                "modified": "2013-10-17T14:57:09-0400",
                "thumbnail": {
                    "path": "http://i.annihil.us/u/prod/marvel/i/mg/7/03/526032b8247e8",
                    "extension": "jpg"
                }
            },
            {
                "id": 1011222,
                "name": "Firestar (Ultimate)",
                "description": "",
                "modified": "2011-03-10T16:54:12-0500",
                "thumbnail": {
                    "path": "http://i.annihil.us/u/prod/marvel/i/mg/6/d0/4ce5a555585c6",
                    "extension": "jpg"
                }
            },
            {
                "id": 1010880,
                "name": "Fixer (Paul Norbert Ebersol)",
                "description": "",
                "modified": "2011-08-23T19:20:05-0400",
                "thumbnail": {
                    "path": "http://i.annihil.us/u/prod/marvel/i/mg/b/40/image_not_available",
                    "extension": "jpg"
                }
            },
            {
                "id": 1010863,
                "name": "Flatman",
                "description": "",
                "modified": "1969-12-31T19:00:00-0500",
                "thumbnail": {
                    "path": "http://i.annihil.us/u/prod/marvel/i/mg/b/40/image_not_available",
                    "extension": "jpg"
                }
            },
            {
                "id": 1010333,
                "name": "Flying Dutchman",
                "description": "",
                "modified": "1969-12-31T19:00:00-0500",
                "thumbnail": {
                    "path": "http://i.annihil.us/u/prod/marvel/i/mg/b/40/image_not_available",
                    "extension": "jpg"
                }
            },
            {
                "id": 1009470,
                "name": "Foggy Nelson",
                "description": "",
                "modified": "2011-08-25T13:34:02-0400",
                "thumbnail": {
                    "path": "http://i.annihil.us/u/prod/marvel/i/mg/6/a0/4ce5a095e7625",
                    "extension": "jpg"
                }
            },
            {
                "id": 1009307,
                "name": "Force Works",
                "description": "",
                "modified": "2013-11-01T16:26:47-0400",
                "thumbnail": {
                    "path": "http://i.annihil.us/u/prod/marvel/i/mg/6/a0/52740df74b57d",
                    "extension": "jpg"
                }
            },
            {
                "id": 1009308,
                "name": "Forearm",
                "description": "",
                "modified": "1969-12-31T19:00:00-0500",
                "thumbnail": {
                    "path": "http://i.annihil.us/u/prod/marvel/i/mg/b/40/image_not_available",
                    "extension": "jpg"
                }
            },
            {
                "id": 1009309,
                "name": "Forge",
                "description": "",
                "modified": "2013-10-24T13:28:57-0400",
                "thumbnail": {
                    "path": "http://i.annihil.us/u/prod/marvel/i/mg/a/90/5269585071503",
                    "extension": "jpg"
                }
            },
            {
                "id": 1014993,
                "name": "Forge (Ultimate)",
                "description": "",
                "modified": "2012-07-10T19:32:29-0400",
                "thumbnail": {
                    "path": "http://i.annihil.us/u/prod/marvel/i/mg/b/40/image_not_available",
                    "extension": "jpg"
                }
            },
            {
                "id": 1011177,
                "name": "Forgotten One",
                "description": "",
                "modified": "1969-12-31T19:00:00-0500",
                "thumbnail": {
                    "path": "http://i.annihil.us/u/prod/marvel/i/mg/8/70/4c002f332fb1f",
                    "extension": "jpg"
                }
            },
            {
                "id": 1009229,
                "name": "Frank Castle",
                "description": "",
                "modified": "2004-04-14T00:00:00-0400",
                "thumbnail": {
                    "path": "http://i.annihil.us/u/prod/marvel/i/mg/b/40/image_not_available",
                    "extension": "jpg"
                }
            },
            {
                "id": 1011356,
                "name": "Frankenstein's Monster",
                "description": "",
                "modified": "2011-05-13T14:32:06-0400",
                "thumbnail": {
                    "path": "http://i.annihil.us/u/prod/marvel/i/mg/a/00/4d78fbb55546e",
                    "extension": "jpg"
                }
            },
            {
                "id": 1009539,
                "name": "Franklin Richards",
                "description": "The son of Reed Richards and Susan Storm of the Fantastic Four, Franklin may one day be the most powerful person on Earth. Right now, he's the son of a genius who finds adventure and fun around every corner.",
                "modified": "2014-04-29T14:23:45-0400",
                "thumbnail": {
                    "path": "http://i.annihil.us/u/prod/marvel/i/mg/f/00/535fedbaaf234",
                    "extension": "jpg"
                }
            },
            {
                "id": 1010980,
                "name": "Franklin Storm",
                "description": "Franklin Storm was the father of Susan and Johnny Storm.",
                "modified": "1969-12-31T19:00:00-0500",
                "thumbnail": {
                    "path": "http://i.annihil.us/u/prod/marvel/i/mg/5/e0/4c0032a9477bc",
                    "extension": "jpg"
                }
            },
            {
                "id": 1011240,
                "name": "Freak",
                "description": "",
                "modified": "1969-12-31T19:00:00-0500",
                "thumbnail": {
                    "path": "http://i.annihil.us/u/prod/marvel/i/mg/1/50/4ce5a5b3cc0aa",
                    "extension": "jpg"
                }
            },
            {
                "id": 1010799,
                "name": "Frightful Four",
                "description": "",
                "modified": "1969-12-31T19:00:00-0500",
                "thumbnail": {
                    "path": "http://i.annihil.us/u/prod/marvel/i/mg/8/a0/4c00372aafb39",
                    "extension": "jpg"
                }
            },
            {
                "id": 1011389,
                "name": "Frog Thor",
                "description": "",
                "modified": "1969-12-31T19:00:00-0500",
                "thumbnail": {
                    "path": "http://i.annihil.us/u/prod/marvel/i/mg/8/b0/4ce5a72d1a081",
                    "extension": "jpg"
                }
            },
            {
                "id": 1010670,
                "name": "Frog-Man",
                "description": "",
                "modified": "2011-06-08T12:00:18-0400",
                "thumbnail": {
                    "path": "http://i.annihil.us/u/prod/marvel/i/mg/f/60/4def9bf15ce30",
                    "extension": "jpg"
                }
            }
        ]
    }
}